<?xml version="1.0" encoding="utf-8"?>
<!-- Svg Vector Icons : http://www.onlinewebfonts.com/icon -->
<!DOCTYPE svg PUBLIC "-//W3C//DTD SVG 1.1//EN" "http://www.w3.org/Graphics/SVG/1.1/DTD/svg11.dtd">
<svg version="1.1" xmlns="http://www.w3.org/2000/svg" xmlns:xlink="http://www.w3.org/1999/xlink" x="0px" y="0px" viewBox="0 0 1000 1000" enable-background="new 0 0 1000 1000" xml:space="preserve">
<metadata> Svg Vector Icons : http://www.onlinewebfonts.com/icon </metadata>
<g><path d="M500,10C229.4,10,10,229.4,10,500c0,270.6,219.4,490,490,490s490-219.4,490-490S770.6,10,500,10z M500,961.4C245.2,961.4,38.6,754.8,38.6,500C38.6,245.2,245.2,38.6,500,38.6c254.8,0,461.4,206.6,461.4,461.4C961.4,754.8,754.8,961.4,500,961.4z"/><path d="M722.3,482.2v0.4l0,0v0.3l0.5,2.1c10.2,2.8,19.4,10.1,26.3,19.9v0.4c7.6,11.3,11.8,26.5,11.8,42.5c0,16.3-4.5,31.7-11.8,43l-0.7,0.5c-8.3,12.5-20.8,20.3-34.8,20.3c-1.6,0-2.9,0-4.5-0.3c-4.3,12.5-9.4,23.9-15.1,35.5c-8.3,16.1-18.2,31.7-29.5,45.9c-16.3,21-33.6,38.1-51.1,52c-33.5,26.2-68.1,39.4-103.5,39.4c-35,0-70-13-103.3-39.4c-17.7-13.9-34.8-31-51.3-52c-11.1-14.2-21-29.5-29.3-45.9c-5.7-11.6-10.9-23.1-15.1-35.5c-1.6,0.3-3.1,0.3-4.7,0.3c-14.2,0-26.7-8-35.2-20.8l0,0c-7.5-11.3-12.1-26.7-12.1-43c0-16.3,4.7-31.5,12.1-42.8c6.9-9.9,15.9-17.1,26.3-19.9l0.3-2.4v-1.1h-0.2l0-221.4v-0.3v-0.4c0-15.8,18.6-27.6,49.2-35.2c95-23.6,232.1-23.6,327.1,0c30.3,7.6,48.4,19.4,48.4,35.2v1.2v220.5L722.3,482.2L722.3,482.2z M485.6,278L485.6,278v31h-31c-13.7,0-24.6,10.9-24.6,24.4c0,13.5,10.9,24.6,24.6,24.6h31v30.9c0,13.2,10.9,24.4,24.3,24.4c13.5,0,24.4-11.3,24.4-24.4v-30.9h31c13.5,0,24.6-11.1,24.6-24.6c0-13.5-11.1-24.4-24.6-24.4h-31v-31c0-13.5-10.9-24.3-24.4-24.3C496.6,253.7,485.6,264.5,485.6,278L485.6,278z M336.9,595.9L336.9,595.9c28.1-10.7,57.9-19.1,88.2-24.4c30.5-5.7,62.2-8.7,94.1-8.7c29.8,0,59.3,2.6,87.7,7.5c26.7,4.7,52.9,11.5,78,19.8l0.7-1.9l0,0c0.3-1.6,1-2.9,2.1-4.5c4.7-6.4,13.9-8,20.4-3.5c0.9,0.5,1.6,1.2,2.8,1.6h0.3c0.7,0.3,1.4,0.7,2.3,0.7c3.8,0,7.6-2.9,10.9-7.6v-0.4c4.3-6.6,7.3-15.9,7.3-26.7c0-10.4-2.8-19.8-7.1-26.3l-0.2-0.3c-3.1-4.7-7.1-7.6-10.9-7.6v-0.2l-0.7,0.2h-0.7c-0.5,0.2-1.2,0.2-1.9,0.3c-8,0.4-14.9-5.5-15.6-13.5l-0.7-9.4v-4.5c-0.7-1.4-1-2.6-1-3.8c-1.4-2.8-18.7-7.1-47-12.1c-34.5-6.3-82.5-10-136.1-10c-53.4,0-101.6,3.8-136.3,10.2c-26.5,4.7-43.5,8.8-46.1,10.9l-0.9,4.5c-0.7,4.2-1,9-1.4,14l-0.2,1.2c-1,8-8.3,13.5-16.6,12.3l-1.7-0.2l0,0h-0.5c-3.6,0-7.5,2.9-10.9,7.6v0.2c-4.2,6.4-7.1,16-7.1,26.5c0,10.8,2.9,20.1,7.1,26.7c3.5,4.7,7.3,8,10.9,8c0.9,0,1.9-0.4,2.6-0.7c0.9,0,1.6-0.7,2.4-1c1.4-1.2,2.9-2.1,5.2-2.4c7.6-2.3,15.6,2.1,17.9,9.9L336.9,595.9L336.9,595.9z M675.1,617.6L675.1,617.6c-23.6-8-48-14-73-18.2c-26.9-4.9-54.6-7.3-82.9-7.3c-30.7,0-60.3,2.8-88.8,8c-28.6,5.2-56.5,13.2-83.4,23.2c1.6,3.1,3.1,6.8,4.8,10.1v0.2c7.3,14.4,16.1,28.3,26.5,40.9v0.2c14.7,19.1,30.3,34.8,46.1,47.1c27.7,21.9,56.9,32.9,85.3,32.9c28.6,0,57.4-11.1,85.6-32.9c15.6-12.3,31-28.1,45.9-47.1c10-12.7,18.9-26.3,26.3-41.3C670.4,628.5,673.2,623,675.1,617.6L675.1,617.6z M692.8,453.1L692.8,453.1V260.3h0.2v-0.9l0,0l-26.3-6.8c-90.5-22.5-222.3-22.4-312.8-0.3c-16.3,4.2-26.3,6.8-26.9,7.1v0.7v192.9c11.1-4.5,25-8.3,41.3-11.3c36.7-6.8,86.9-10.9,141.6-10.9c54.8,0,104.7,4.2,141.3,10.8C667.5,444.8,681.9,448.6,692.8,453.1L692.8,453.1z"/></g>
</svg>