{
  "appId": "app.curameitech.com",
  "appName": "Curameitech",
  "bundledWebRuntime": false,
  "npmClient": "npm",
  "webDir": "dist/UI",
  "plugins": {
    "SplashScreen": {
      "launchShowDuration": 0
    }
  },
  "cordova": {}
}
