{
    "type": "service_account",
    "project_id": "semiotic-tracer-279121",
    "private_key_id": "0e967c42131980b88a16dd5477c25a56fea313b3",
    "private_key": "-----BEGIN PRIVATE KEY-----\nMIIEvwIBADANBgkqhkiG9w0BAQEFAASCBKkwggSlAgEAAoIBAQDTgOxclj3g4Jd7\n/OlVTT5jyohDzRyjAfN4QhnJWrNR5bSVGa8fQDosEbSoQwZDnflyaVzcg8dclQ6j\nkl2fIncypPcr3BlqRbC38SPuN1aQhNsn93vIECnl45KnrTLeaePeuMaUPkb7ML0P\nzhtXr26dxJo9Qn6gQYLFO640n40m3S2OJ8NG+5esVNImDTonC7gMdaAwYtH25U0K\nQU7BWZIGiZ2UZ5dXYGzuQYl0BJHD8S2cmOkmsZ6/SGCa4Hu70wph8WA57J8qmsE/\noLsF3MoNHkoqB9iMCnsIDIf5XWtVgfhqr5lubEN1zpV/19q7wZtXokiiZi1H+dHc\n0dVRWw63AgMBAAECggEAE74dkhjuJr8gNNErYKyIrdz6ckXDrg2hEfEtogeG5Jaq\nEB7pI2Ql6fYvJGO5QneNENp38heU9PXu+2LOvWuEr+QJNH1jm/FsaQcn4PUmbfAQ\n2v61fbvQhWaESoWW0X8V57TcyHq1un3WsBJ/p+Q20aBH+37o/gGPeOS0wrHABcgF\nCaN9o/x0b79AxkOMvx+Kf8ZRktN56LkQgO83ES48ZaEYEDNoySXGHNLZDpw0zUX/\n4FMmIMX/EZpbNBKiYb4FPwkdtkAh5Jd999K0sq7/xiKZ8coiOkYc5YXXFqhPq1eH\nxYCuEgdPaoxq98V8Ty1Zd0nesvYaIrUyjAWmygetxQKBgQD6QsL9b/75eYC2Ou+G\nfDRLd4hOO9c08pn0YIEpFPn1d96p72kRZdZbRvk16JMOalhwLvRdFJcXzy3ATZm2\noqqOQuz2Auny5PO/4xgaFtruOmkMADKJByksHV88vVE2VklTyiJEz2ybfv4Zyc2m\n3ByPgvLfq3DAH4z91PmoOTn48wKBgQDYWp/0NRjY3B0Bgxy9KM9yeA9j3BrDPF7h\nJcwdidY+uH6QlHc7XpctWijsz8org350I+2NLtOU89o7Q84K8kPqiFTVtHQtZy0/\nnemhJcGKl5VKCBnlu7o8n7KlSizgQANjSAwf19UEI24u/1DxHt5/EnVeV7Jcvai4\nx2mU/j+ELQKBgQCoLP8uIvocmkslqttV69eUs2IU+N+5RCKzd7q0adVD4ObwGePo\nfiAbvMkyMfXI5SxDTzqF5pVWubJMHZnjgtLMwSrOc8zVnogy9iA3QA6lsvjuyJ8t\nOHOxopdikPKnajripN58kUux/xgxKk0aCabjxiMCrgoaAdnUpi+TnclYgwKBgQC8\nwxzJeUYLdsgL2LPLSf7sdVmgG5px+oshTtPudaMqJ9etFwuMDfRCSmZobsaJ/njm\npa4Nvuw1Cii+CmOLY2HkDzxNE9tE/b8ZwRHkWkepPqWu6LCHoqlTWVYJJlVO9iq+\nhU6mva2JpcvtTy70oKUpIxap0EO67HJ3fOxeZRFPpQKBgQCKDU+jUtpM5CsOLf1k\nMfQTz82HLLPPrOqvJ7FGfZFtDfOIXQ+gDs5TD8auHgNJCJPt9FzqIcaKS+e35A94\n9XpEvDfLTg+/CtWMx1Ee4DTnlBUemz2d4A78REhK3D+Rv6W6ijvg86oohbg8N57C\nQb59DN3xzMga8uC0c79zqRaZKA==\n-----END PRIVATE KEY-----\n",
    "client_email": "curameihealthcareapiaccount@semiotic-tracer-279121.iam.gserviceaccount.com",
    "client_id": "101845896601374878903",
    "auth_uri": "https://accounts.google.com/o/oauth2/auth",
    "token_uri": "https://oauth2.googleapis.com/token",
    "auth_provider_x509_cert_url": "https://www.googleapis.com/oauth2/v1/certs",
    "client_x509_cert_url": "https://www.googleapis.com/robot/v1/metadata/x509/curameihealthcareapiaccount%40semiotic-tracer-279121.iam.gserviceaccount.com"
  }